R快速入门 – 多元统计25秋
…
data(mpg)

#1 miles per gallon = 0.425 kilometers per liter

mpg %>% 
  filter(year == 1999) %>% 
  select(displ,cty, hwy,trans) %>% 
  arrange(displ) %>% 
  mutate(cty.kpl = 0.425*cty, 
               hwy.kpl = 0.425*hwy) %>% 
  mutate(transmission = 
           if_else(substring(trans, 1,4) == "auto", 
                   "auto","manual"))

# A tibble: 117 × 7
   displ   cty   hwy trans      cty.kpl hwy.kpl transmission
   <dbl> <int> <int> <chr>        <dbl>   <dbl> <chr>       
 1   1.6    28    33 manual(m5)   11.9     14.0 manual      
 2   1.6    24    32 auto(l4)     10.2     13.6 auto        
 3   1.6    25    32 manual(m5)   10.6     13.6 manual      
 4   1.6    23    29 manual(m5)    9.78    12.3 manual      
 5   1.6    24    32 auto(l4)     10.2     13.6 auto        
 6   1.8    18    29 auto(l5)      7.65    12.3 auto        
 7   1.8    21    29 manual(m5)    8.92    12.3 manual      
 8   1.8    18    26 manual(m5)    7.65    11.0 manual      
 9   1.8    16    25 auto(l5)      6.8     10.6 auto        
10   1.8    24    30 auto(l3)     10.2     12.8 auto        
# ℹ 107 more rows
…
